module gitlab.com/anangnov/test-lemonilo-golang

go 1.16

require (
	github.com/dgrijalva/jwt-go v3.2.0+incompatible // indirect
	github.com/gin-gonic/gin v1.7.2 // indirect
	github.com/joho/godotenv v1.3.0 // indirect
	golang.org/x/crypto v0.0.0-20210513164829-c07d793c2f9a // indirect
	gorm.io/driver/mysql v1.1.0 // indirect
	gorm.io/driver/postgres v1.1.0 // indirect
	gorm.io/gorm v1.21.11 // indirect
)
